[gd_scene load_steps=2 format=2]

[ext_resource path="res://Scenes/Fade.gd" type="Script" id=1]

[node name="Fade" type="ColorRect"]
margin_right = 1500.0
margin_bottom = 720.0
color = Color( 0.0588235, 0.054902, 0.054902, 1 )
script = ExtResource( 1 )
fadeIn = true
